Product Name,Short Description,Description,Category Id,Keyword,Price,Type,Special Price,Special Price From,Special Price To,Weight,Inventory,Image
product 1,Good food,nice product,1,,100,veg,90,03-03-00,05-02-19,12kg,1,http://localhost:3301/superpos/myimages/imagename.jpg
product 2,Good food,nice product,1,,150,veg,100,03-03-00,05-02-19,4kg,1,
product 3,Best Product,Good for health,2,,300,veg,280,05-02-19,01-05-19,500gm,5,
product 4,Cool Drinks,Make fress,3,,550,veg,540,05-02-19,05-02-19,300ml,2,
